<?xml version="1.0" encoding="UTF-8"?>
<CustomTab xmlns="http://soap.sforce.com/2006/04/metadata">
    <customObject>true</customObject>
    <description>Magento Websites</description>
    <mobileReady>false</mobileReady>
    <motif>Custom68: Globe</motif>
</CustomTab>
