<?xml version="1.0" encoding="UTF-8"?>
<CustomTab xmlns="http://soap.sforce.com/2006/04/metadata">
    <label>PowerSync Settings</label>
    <mobileReady>false</mobileReady>
    <motif>Custom242: TV Widescreen</motif>
    <page>PowerSync_Settings</page>
</CustomTab>
